%YAML 1.1
%TAG !u! tag:unity3d.com,2011:
--- !u!114 &11400000
MonoBehaviour:
  m_ObjectHideFlags: 0
  m_CorrespondingSourceObject: {fileID: 0}
  m_PrefabInstance: {fileID: 0}
  m_PrefabAsset: {fileID: 0}
  m_GameObject: {fileID: 0}
  m_Enabled: 1
  m_EditorHideFlags: 0
  m_Script: {fileID: 11500000, guid: b6312e37b6ba1e940b06eda53db43860, type: 3}
  m_Name: Coin
  m_EditorClassIdentifier: 
  id: 6
  itemName: "\u0E40\u0E2B\u0E23\u0E35\u0E22\u0E0D"
  icon: {fileID: 21300000, guid: 920d07234edbf4a4b9bd371c83a3559e, type: 3}
  itemType: 5
